Project 1: Wrangling, Exploration, Visualization
…
elo %>% filter(!country %in% fifa$country) %>% summarize(n = n())

## # A tibble: 1 x 1
##       n
##   <int>
## 1    40

169 + 22 + 40

## [1] 231

# determine which countries are unique
fifa %>% filter(!country %in% elo$country)

## # A tibble: 22 x 5
##    country     confederation population_share tv_audience_share gdp_weighted_sh
##    <chr>       <chr>                    <dbl>             <dbl>            <dbl>
##  1 United Kin UEFA                       0.9               2.1              4.2
##  2 Czech Repu UEFA                       0.2               0.3              0.5
##  3 Dominica R CONCACAF                   0.1               0.2              0.1
##  4 Bosnia-Her UEFA                       0.1               0.1              0.1
##  5 Macau       AFC                        0                 0                0.1
##  6 Trinidad & CONCACAF                   0                 0                0  
##  7 Kosovo      UEFA                       0                 0.1              0  
##  8 Suriname    CONCACAF                   0                 0                0  
##  9 Turks & Ca CONCACAF                   0                 0                0  
## 10 Congo DR    CAF                        0.9               0.2              0  
## #  with 12 more rows

elo %>% filter(!country %in% fifa$country)

## # A tibble: 40 x 8
##    country        elo98 elo15 confederation  gdp06 popu06 gdp_source popu_source
##    <chr>          <int> <int> <chr>          <dbl>  <dbl> <chr>      <chr>      
##  1 Andorra         1067   952 UEFA          38800  8.19e4 CIA (2005) World Bank 
##  2 Anguilla         612   641 CONCACAF       8800  1.37e4 CIA (2004) CIA (2007) 
##  3 Antigua and B  1149  1264 CONCACAF      22040. 8.35e4 World Bank World Bank 
##  4 Belize           985  1098 CONCACAF       7672. 2.79e5 World Bank World Bank 
##  5 Bhutan           640   611 AFC            4375. 6.66e5 World Bank World Bank 
##  6 Bosnia and He  1556  1694 UEFA           7087. 3.88e6 World Bank World Bank 
##  7 British Virgi   848   652 CONCACAF      38500  2.35e4 CIA (2004) CIA (2007) 
##  8 Comoros          891   907 CAF            1328. 6.17e5 World Bank World Bank 
##  9 Congo           1484  1440 CAF            4715. 3.65e6 World Bank World Bank 
## 10 Czechia         1853  1752 UEFA          24416. 1.02e7 World Bank World Bank 
## #  with 30 more rows
…
